%YAML 1.1
%TAG !u! tag:unity3d.com,2011:
--- !u!114 &11400000
MonoBehaviour:
  m_ObjectHideFlags: 0
  m_CorrespondingSourceObject: {fileID: 0}
  m_PrefabInstance: {fileID: 0}
  m_PrefabAsset: {fileID: 0}
  m_GameObject: {fileID: 0}
  m_Enabled: 1
  m_EditorHideFlags: 0
  m_Script: {fileID: 11500000, guid: de5210ce93b60c74b910290c522cd727, type: 3}
  m_Name: EditorStartupPrefs
  m_EditorClassIdentifier: 
  welcomeScreenVersion: '1.9.0 '
  playmakerVersion: 
  showWelcomeScreen: 0
  showUpgradeGuide: 0
  lastAutoUpdateSignature: 2018.4.1f1__/home/ozhogi/Unity/Unity Projects/Playmaker/Assets__0.0.0.0
  useLegacyNetworking: 0
